<svg xmlns="http://www.w3.org/2000/svg" width="100" height="100">
    <text
        x="1"
        y="71"
        font-family="EB Garamond Initials Fill1"
        fill="#003cba"
        stroke="#000000aa"
        stroke-width="0.5"
        font-size="100">
        L
    </text>
    <text
        x="1"
        y="71"
        font-family="EB Garamond Initials Fill2"
        fill="#000000"
        stroke="#003cba"
        font-size="100">
        L
    </text>
</svg>
