<svg xmlns="http://www.w3.org/2000/svg" width="460" height="100">
    <text
        x="10"
        y="85"
        font-size="120"
        font-family="EB Garamond SC"
        fill="#FFFFFF"
        stroke="#003cba"
        stroke-width="0.5">
        LYCEUM
    </text>
</svg>
